cpu-sample/RTL/pipeline/test.vcd
$date
	Tue Jun 23 22:17:03 2020
$end
$version
	Icarus Verilog
$end
$timescale
	1ps
$end
$scope module Top $end
$var wire 1 ! CLK $end
$var wire 1 " IRq $end
$var wire 32 # PCout [31:0] $end
$var wire 32 $ R5 [31:0] $end
$var wire 1 % RST $end
$var wire 1 & s $end
$var wire 8 ' r5 [7:0] $end
$var wire 1 ( Zout $end
$var wire 1 ) Z $end
$var wire 32 * WB_IR [31:0] $end
$var wire 1 + Vout $end
$var wire 1 , V $end
$var wire 4 - Scan_Sig [3:0] $end
$var wire 8 . SMG_Data [7:0] $end
$var wire 32 / S [31:0] $end
$var wire 1 0 RegWrite $end
$var wire 1 1 Rb_Mux $end
$var wire 4 2 Rb [3:0] $end
$var wire 32 3 RFout2 [31:0] $end
$var wire 32 4 RFout1 [31:0] $end
$var wire 2 5 RFin_Mux [1:0] $end
$var wire 32 6 RFin [31:0] $end
$var wire 1 7 PCwr $end
$var wire 1 8 PCtoBL $end
$var wire 1 9 Nout $end
$var wire 32 : NPCout [31:0] $end
$var wire 2 ; NPCop [1:0] $end
$var wire 1 < N $end
$var wire 1 = MSR $end
$var wire 32 > MEM_IR [31:0] $end
$var wire 32 ? Instruction [31:0] $end
$var wire 32 @ Imm32_WB [31:0] $end
$var wire 32 A Imm32_ID [31:0] $end
$var wire 32 B Imm32_EX [31:0] $end
$var wire 1 C IMen $end
$var wire 32 D ID_IR [31:0] $end
$var wire 2 E Extop_WB [1:0] $end
$var wire 2 F Extop_ID [1:0] $end
$var wire 2 G Extop_EX [1:0] $end
$var wire 32 H EX_IR [31:0] $end
$var wire 1 I DMwr $end
$var wire 32 J DMout [31:0] $end
$var wire 1 K Cout $end
$var wire 1 L C $end
$var wire 32 M B1 [31:0] $end
$var wire 32 N B0 [31:0] $end
$var wire 32 O B [31:0] $end
$var wire 8 P ALUrs [7:0] $end
$var wire 32 Q ALUout [31:0] $end
$var wire 4 R ALUop [3:0] $end
$var wire 3 S ALUB_Mux [2:0] $end
$var wire 2 T ALUA_Mux [1:0] $end
$var wire 32 U A [31:0] $end
$var reg 32 V ALUA [31:0] $end
$var reg 32 W ALUB [31:0] $end
$var reg 32 X ALU_MEM [31:0] $end
$var reg 4 Y CPSR [3:0] $end
$var reg 1 Z IRQ $end
$var reg 1 [ clk $end
$var reg 26 \ count [25:0] $end
$var reg 1 ] rst $end
$scope module U_A $end
$var wire 2 ^ MUXop [1:0] $end
$var wire 32 _ MUXin4 [31:0] $end
$var wire 32 ` MUXin3 [31:0] $end
$var wire 32 a MUXin2 [31:0] $end
$var wire 32 b MUXin1 [31:0] $end
$var reg 32 c MUXout [31:0] $end
$upscope $end
$scope module U_ALU $end
$var wire 32 d A [31:0] $end
$var wire 32 e b [31:0] $end
$var wire 1 & s $end
$var wire 8 f Rs [7:0] $end
$var wire 32 g EX_IR [31:0] $end
$var wire 1 K Cin $end
$var wire 4 h ALUop [3:0] $end
$var reg 32 i B [31:0] $end
$var reg 1 L C $end
$var reg 1 < N $end
$var reg 32 j S [31:0] $end
$var reg 1 k ShiftC $end
$var reg 1 , V $end
$var reg 1 ) Z $end
$upscope $end
$scope module U_ALUout $end
$var wire 32 l S [31:0] $end
$var wire 1 [ clk $end
$var wire 1 ] rst $end
$var reg 32 m ALUout [31:0] $end
$upscope $end
$scope module U_B $end
$var wire 1 n MUXop $end
$var wire 32 o MUXin2 [31:0] $end
$var wire 32 p MUXin1 [31:0] $end
$var reg 32 q MUXout [31:0] $end
$upscope $end
$scope module U_B0 $end
$var wire 1 r MUXop $end
$var wire 32 s MUXin2 [31:0] $end
$var wire 32 t MUXin1 [31:0] $end
$var reg 32 u MUXout [31:0] $end
$upscope $end
$scope module U_B1 $end
$var wire 32 v MUXin1 [31:0] $end
$var wire 32 w MUXin2 [31:0] $end
$var wire 32 x MUXin3 [31:0] $end
$var wire 2 y MUXop [1:0] $end
$var wire 32 z MUXin4 [31:0] $end
$var reg 32 { MUXout [31:0] $end
$upscope $end
$scope module U_CPSR $end
$var wire 1 L Cin $end
$var wire 1 < Nin $end
$var wire 1 & S $end
$var wire 1 , Vin $end
$var wire 1 ) Zin $end
$var wire 1 [ clk $end
$var wire 1 ] rst $end
$var wire 32 | Rm [31:0] $end
$var wire 1 = MSR $end
$var reg 1 K Cout $end
$var reg 1 9 Nout $end
$var reg 1 + Vout $end
$var reg 1 ( Zout $end
$upscope $end
$scope module U_DataMemory $end
$var wire 32 } DMaddr [31:0] $end
$var wire 32 ~ DMout [31:0] $end
$var wire 1 [ clk $end
$var wire 1 ] rst $end
$var wire 1 I DMwr $end
$var wire 32 !" DMin [31:0] $end
$var reg 32 "" Dmout [31:0] $end
$var reg 7 #" index [6:0] $end
$upscope $end
$scope module U_EX_SignExtend $end
$var wire 24 $" imm [23:0] $end
$var wire 32 %" imm32 [31:0] $end
$var wire 2 &" Extop [1:0] $end
$var reg 32 '" Imm32 [31:0] $end
$upscope $end
$scope module U_ID_SignExtend $end
$var wire 24 (" imm [23:0] $end
$var wire 32 )" imm32 [31:0] $end
$var wire 2 *" Extop [1:0] $end
$var reg 32 +" Imm32 [31:0] $end
$upscope $end
$scope module U_IM $end
$var wire 32 ," IMaddr [31:0] $end
$var wire 1 [ clk $end
$var wire 32 -" Imaddr [31:0] $end
$var wire 1 C IMen $end
$var reg 32 ." Instruction [31:0] $end
$upscope $end
$scope module U_NPC $end
$var wire 32 /" Imm32 [31:0] $end
$var wire 32 0" PC [31:0] $end
$var wire 1 ] Reset $end
$var wire 2 1" NPCop [1:0] $end
$var reg 32 2" NPCout [31:0] $end
$upscope $end
$scope module U_RFin_Mux $end
$var wire 32 3" MUXin1 [31:0] $end
$var wire 32 4" MUXin2 [31:0] $end
$var wire 32 5" MUXin4 [31:0] $end
$var wire 2 6" MUXop [1:0] $end
$var wire 32 7" MUXin3 [31:0] $end
$var reg 32 8" MUXout [31:0] $end
$upscope $end
$scope module U_Rb_Mux $end
$var wire 4 9" MUXin1 [3:0] $end
$var wire 4 :" MUXin2 [3:0] $end
$var wire 1 1 MUXop $end
$var reg 4 ;" MUXout [3:0] $end
$upscope $end
$scope module U_RegFiles $end
$var wire 4 <" CPSR [3:0] $end
$var wire 4 =" EX_IR_rs [3:0] $end
$var wire 32 >" NPC [31:0] $end
$var wire 32 ?" PC [31:0] $end
$var wire 32 @" PCout [31:0] $end
$var wire 32 A" R5 [31:0] $end
$var wire 32 B" RFin [31:0] $end
$var wire 32 C" RFout1 [31:0] $end
$var wire 32 D" RFout2 [31:0] $end
$var wire 4 E" Ra [3:0] $end
$var wire 4 F" Rb [3:0] $end
$var wire 1 ] Reset $end
$var wire 4 G" Rw [3:0] $end
$var wire 1 [ clk $end
$var wire 8 H" Rs [7:0] $end
$var wire 1 0 RegWrite $end
$var wire 1 7 PCwr $end
$var wire 1 8 PCtoBL $end
$var reg 5 I" index [4:0] $end
$upscope $end
$scope module U_SMG $end
$var wire 1 ! CLK $end
$var wire 16 J" Number_Sig [15:0] $end
$var wire 1 ] RSTn $end
$var wire 4 K" Scan_Sig [3:0] $end
$var wire 8 L" SMG_Data [7:0] $end
$var wire 4 M" Number_Data [3:0] $end
$scope module U1 $end
$var wire 1 ! CLK $end
$var wire 4 N" Number_Data [3:0] $end
$var wire 16 O" Number_Sig [15:0] $end
$var wire 1 ] RSTn $end
$var reg 17 P" C1 [16:0] $end
$var reg 4 Q" i [3:0] $end
$var reg 4 R" rNumber [3:0] $end
$upscope $end
$scope module U2 $end
$var wire 1 ! CLK $end
$var wire 4 S" Number_Data [3:0] $end
$var wire 1 ] RSTn $end
$var wire 8 T" SMG_Data [7:0] $end
$var reg 8 U" rSMG [7:0] $end
$upscope $end
$scope module U3 $end
$var wire 1 ! CLK $end
$var wire 1 ] RSTn $end
$var wire 4 V" Scan_Sig [3:0] $end
$var reg 17 W" C1 [16:0] $end
$var reg 4 X" i [3:0] $end
$var reg 4 Y" rScan [3:0] $end
$upscope $end
$upscope $end
$scope module U_WB_SignExtend $end
$var wire 24 Z" imm [23:0] $end
$var wire 32 [" imm32 [31:0] $end
$var wire 2 \" Extop [1:0] $end
$var reg 32 ]" Imm32 [31:0] $end
$upscope $end
$scope module U_control $end
$var wire 1 K C $end
$var wire 1 " IRQ $end
$var wire 1 9 N $end
$var wire 1 + V $end
$var wire 1 ( Z $end
$var wire 1 [ clk $end
$var wire 32 ^" instruction [31:0] $end
$var wire 1 ] rst $end
$var wire 4 _" cond [3:0] $end
$var wire 1 `" VS $end
$var wire 1 a" VC $end
$var wire 1 b" PL $end
$var wire 1 c" NE $end
$var wire 1 d" MI $end
$var wire 1 e" LT $end
$var wire 1 f" LS $end
$var wire 1 g" LE $end
$var wire 1 h" HI $end
$var wire 1 i" GT $end
$var wire 1 j" GE $end
$var wire 1 k" EQ $end
$var wire 1 l" CS $end
$var wire 1 m" CC $end
$var wire 1 n" AL $end
$var reg 2 o" ALUASrc [1:0] $end
$var reg 3 p" ALUBSrc [2:0] $end
$var reg 4 q" ALUop [3:0] $end
$var reg 1 r" Branch $end
$var reg 1 I DMwr $end
$var reg 2 s" EXTop_EX [1:0] $end
$var reg 2 t" EXTop_ID [1:0] $end
$var reg 2 u" EXTop_WB [1:0] $end
$var reg 32 v" EX_IR [31:0] $end
$var reg 32 w" ID_IR [31:0] $end
$var reg 1 C IMen $end
$var reg 32 x" MEM_IR [31:0] $end
$var reg 1 = MSR $end
$var reg 2 y" NPCop [1:0] $end
$var reg 1 8 PCtoBL $end
$var reg 1 7 PCwr $end
$var reg 1 0 RFwr $end
$var reg 1 1 RbSrc $end
$var reg 2 z" Rw [1:0] $end
$var reg 32 {" WB_IR [31:0] $end
$var reg 1 |" branch $end
$var reg 1 }" count $end
$var reg 1 ~" irq $end
$upscope $end
$upscope $end
$enddefinitions $end
#0
$dumpvars
0~"
0}"
0|"
b0 {"
b0 z"
b0 y"
b0 x"
b0 w"
b0 v"
b0 u"
b0 t"
b10 s"
0r"
bx q"
b0 p"
b0 o"
0n"
0m"
0l"
1k"
0j"
0i"
0h"
0g"
0f"
0e"
0d"
0c"
0b"
0a"
0`"
b0 _"
b0 ^"
b0 ]"
b0 \"
b0 ["
b0 Z"
b0 Y"
b0 X"
b0 W"
b0 V"
b11111111 U"
b11111111 T"
b0 S"
b0 R"
b0 Q"
b0 P"
b0 O"
b0 N"
b0 M"
b11111111 L"
b0 K"
b0 J"
b10000 I"
b0 H"
b0 G"
b0 F"
b0 E"
b0 D"
b0 C"
b0 B"
b0 A"
b1000 @"
b1000 ?"
b0 >"
b0 ="
bz <"
b0 ;"
b0 :"
b0 9"
b0 8"
b0 7"
b0 6"
b0 5"
b0 4"
b0 3"
b0 2"
b0 1"
b1000 0"
b0 /"
b0 ."
b10 -"
b1000 ,"
b0 +"
b0 *"
b0 )"
b0 ("
b0 '"
b10 &"
b0 %"
b0 $"
b100000 #"
b0 ""
b0 !"
b0 ~
b0 }
b0 |
b0 {
b0 z
b0 y
b0 x
b0 w
b0 v
b0 u
b0 t
b0 s
0r
b0 q
b0 p
b0 o
0n
b0 m
b0 l
xk
b0 j
b0 i
bx h
b0 g
b0 f
b0 e
b0 d
b0 c
b0 b
b0 a
b0 `
b0 _
b0 ^
0]
b0 \
0[
1Z
b0 Y
b0 X
b0 W
b0 V
b0 U
b0 T
b0 S
bx R
b0 Q
b0 P
b0 O
b0 N
b0 M
xL
0K
b0 J
xI
b0 H
b10 G
b0 F
b0 E
b0 D
1C
b0 B
b0 A
b0 @
b0 ?
b0 >
0=
x<
b0 ;
b0 :
09
08
17
b0 6
b0 5
b0 4
b0 3
b0 2
x1
00
b0 /
b11111111 .
b0 -
x,
0+
b0 *
x)
0(
b0 '
0&
z%
b0 $
b1000 #
0"
z!
$end
#50000
b1100 :
b1100 2"
b1100 >"
1]
#100000
b11 -"
b10000 :
b10000 2"
b10000 >"
b1100 #
b1100 ,"
b1100 0"
b1100 ?"
b1100 @"
b11100011101100000101000001001111 ?
b11100011101100000101000001001111 ."
b11100011101100000101000001001111 ^"
1[
#200000
0[
#300000
b1001111 A
b1001111 s
b1001111 )"
b1001111 +"
b100 -"
b10100 :
b10100 2"
b10100 >"
b101100000101000001001111 ("
b1111 9"
b10000 #
b10000 ,"
b10000 0"
b10000 ?"
b10000 @"
b11100011101100000101000001001111 D
b11100011101100000101000001001111 w"
b11100011101100000100000001000000 ?
b11100011101100000100000001000000 ."
b11100011101100000100000001000000 ^"
1[
#400000
b1001111 O
b1001111 q
b1001111 N
b1001111 p
b1001111 u
b1 y
1r
b1 S
b1 p"
0[
#500000
b1000000 O
b1000000 q
b1000000 N
b1000000 p
b1000000 u
0k"
1n"
b11111110110000010100000100111100 B
b11111110110000010100000100111100 %"
b11111110110000010100000100111100 /"
b11111110110000010100000100111100 '"
0<
1)
b1000000 A
b1000000 s
b1000000 )"
b1000000 +"
b1110 _"
b101100000101000001001111 $"
1&
b1001111 i
b101100000100000001000000 ("
b0 9"
b101 -"
b11000 :
b11000 2"
b11000 >"
b1001111 W
b1001111 e
b11100011101100000101000001001111 H
b11100011101100000101000001001111 g
b11100011101100000101000001001111 v"
b11100011101100000100000001000000 D
b11100011101100000100000001000000 w"
b10100 #
b10100 ,"
b10100 0"
b10100 ?"
b10100 @"
b11100010100101010101000000000001 ?
b11100010100101010101000000000001 ."
b11100010100101010101000000000001 ^"
1[
#600000
0)
b1001111 M
b1001111 o
b1001111 {
b1001111 /
b1001111 a
b1001111 j
b1001111 l
b1001111 w
b1101 R
b1101 h
b1101 q"
0[
#700000
b1 O
b1 q
b1 N
b1 p
b1 u
b1 A
b1 s
b1 )"
b1 +"
b11111110110000010000000100000000 B
b11111110110000010000000100000000 %"
b11111110110000010000000100000000 /"
b11111110110000010000000100000000 '"
b101 2
b101 ;"
b101 F"
b110 -"
b11100 :
b11100 2"
b11100 >"
b1000000 M
b1000000 o
b1000000 {
b1000000 /
b1000000 a
b1000000 j
b1000000 l
b1000000 w
b100101010101000000000001 ("
b1 9"
b101 E"
b101100000100000001000000 $"
b101 :"
b1000000 i
b11000 #
b11000 ,"
b11000 0"
b11000 ?"
b11000 @"
b1001111 Q
b1001111 `
b1001111 m
b1001111 x
b1001111 }
x+
xK
b11100010100101010101000000000001 D
b11100010100101010101000000000001 w"
b11100011101100000100000001000000 H
b11100011101100000100000001000000 g
b11100011101100000100000001000000 v"
b11100011101100000101000001001111 >
b11100011101100000101000001001111 x"
b1000000 W
b1000000 e
b11100010010101010101000000010000 ?
b11100010010101010101000000010000 ."
b11100010010101010101000000010000 ^"
1[
#800000
b1001111 U
b1001111 c
b1 2
b1 ;"
b1 F"
b10 T
b10 ^
b10 o"
01
0I
0[
#900000
b10000 O
b10000 q
b10000 N
b10000 p
b10000 u
b1001111 @
b1001111 7"
b1001111 ["
b1001111 ]"
b11111110010101010100000000000100 B
b11111110010101010100000000000100 %"
b11111110010101010100000000000100 /"
b11111110010101010100000000000100 '"
b10000 A
b10000 s
b10000 )"
b10000 +"
b0 2
b0 ;"
b0 F"
b1 M
b1 o
b1 {
b1 /
b1 a
b1 j
b1 l
b1 w
b101100000101000001001111 Z"
b101 G"
b100 :"
b100101010101000000000001 $"
b1 i
b10101010101000000010000 ("
b0 9"
b1001111 6
b1001111 _
b1001111 z
b1001111 8"
b1001111 B"
b1000000 U
b1000000 c
b111 -"
b100000 :
b100000 2"
b100000 >"
b0xx 5"
b0xx Y
b1001111 X
b1001111 3"
b1 W
b1 e
b1001111 V
b1001111 d
b11100011101100000101000001001111 *
b11100011101100000101000001001111 {"
b11100011101100000100000001000000 >
b11100011101100000100000001000000 x"
b11100010100101010101000000000001 H
b11100010100101010101000000000001 g
b11100010100101010101000000000001 v"
b11100010010101010101000000010000 D
b11100010010101010101000000010000 w"
bx J
bx ~
bx 4"
bx ""
b1000000 Q
b1000000 `
b1000000 m
b1000000 x
b1000000 }
b11100 #
b11100 ,"
b11100 0"
b11100 ?"
b11100 @"
b11100000100101010101000000000100 ?
b11100000100101010101000000000100 ."
b11100000100101010101000000000100 ^"
1[
#1000000
0k
b1010000 M
b1010000 o
b1010000 {
0,
0L
b1010000 /
b1010000 a
b1010000 j
b1010000 l
b1010000 w
b1010000 U
b1010000 c
b10 5
b10 6"
b10 z"
10
b100 R
b100 h
b100 q"
b1 T
b1 ^
b1 o"
0[
#1050000
1"
0Z
#1100000
b100 O
b100 q
b100 N
b100 p
b100 u
b1000000 6
b1000000 _
b1000000 z
b1000000 8"
b1000000 B"
b100 A
b100 s
b100 )"
b100 +"
b1010101010100000001000000 B
b1010101010100000001000000 %"
b1010101010100000001000000 /"
b1010101010100000001000000 '"
b100 2
b100 ;"
b100 F"
b1000000 @
b1000000 7"
b1000000 ["
b1000000 ]"
b1000 -"
b100100 :
b100100 2"
b100100 >"
b1001111 '
b1001111 J"
b1001111 O"
b1100000 U
b1100000 c
b1100000 M
b1100000 o
b1100000 {
b100101010101000000000100 ("
b100 9"
b10101010101000000010000 $"
b101 :"
b101100000100000001000000 Z"
b100 G"
b10000 i
b1100000 /
b1100000 a
b1100000 j
b1100000 l
b1100000 w
b100000 #
b100000 ,"
b100000 0"
b100000 ?"
b100000 @"
b1001111 4
b1001111 b
b1001111 C"
b1001111 $
b1001111 A"
b1010000 Q
b1010000 `
b1010000 m
b1010000 x
b1010000 }
0+
0K
1}"
b11100000100101010101000000000100 D
b11100000100101010101000000000100 w"
b11100010010101010101000000010000 H
b11100010010101010101000000010000 g
b11100010010101010101000000010000 v"
b11100010100101010101000000000001 >
b11100010100101010101000000000001 x"
b11100011101100000100000001000000 *
b11100011101100000100000001000000 {"
b1000000 X
b1000000 3"
b10000 W
b10000 e
b1010000 V
b1010000 d
b11100101100000000100000000000000 ?
b11100101100000000100000000000000 ."
b11100101100000000100000000000000 ^"
1[
#1200000
b1000000 O
b1000000 q
1k
b1000000 U
b1000000 c
b1000000 M
b1000000 o
b1000000 {
b100 :
b100 2"
b100 >"
1n
b11 y
1L
b1000000 /
b1000000 a
b1000000 j
b1000000 l
b1000000 w
18
b10 ;
b10 1"
b10 y"
b111 S
b111 p"
b10 R
b10 h
b10 q"
0[
#1300000
b1 O
b1 q
b1 M
b1 o
b1 {
b1 6
b1 _
b1 z
b1 8"
b1 B"
1)
b0 N
b0 p
b0 u
b1 @
b1 7"
b1 ["
b1 ]"
b11111110010101010100000000010000 B
b11111110010101010100000000010000 %"
b11111110010101010100000000010000 /"
b11111110010101010100000000010000 '"
b0 A
b0 s
b0 )"
b0 +"
b0 2
b0 ;"
b0 F"
b0 U
b0 c
b100101010101000000000001 Z"
b101 G"
b100101010101000000000100 $"
b1000000 i
b100000000100000000000000 ("
b0 9"
b0 4
b0 b
b0 C"
b0 E"
b0 /
b0 a
b0 j
b0 l
b0 w
b1 -"
b0 5"
b0 Y
b1010000 X
b1010000 3"
b1000000 W
b1000000 e
b1000000 V
b1000000 d
b11100010100101010101000000000001 *
b11100010100101010101000000000001 {"
b11100010010101010101000000010000 >
b11100010010101010101000000010000 x"
b11100000100101010101000000000100 H
b11100000100101010101000000000100 g
b11100000100101010101000000000100 v"
b11100101100000000100000000000000 D
b11100101100000000100000000000000 w"
0}"
1~"
1K
b1000000 Q
b1000000 `
b1000000 m
b1000000 x
b1000000 }
b100 #
b100 ,"
b100 0"
b100 ?"
b100 @"
b0 3
b0 t
b0 |
b0 !"
b0 D"
b11100101100100000101000000000000 ?
b11100101100100000101000000000000 ."
b11100101100100000101000000000000 ^"
1[
#1400000
0k
0)
b0 O
b0 q
b10000000 M
b10000000 o
b10000000 {
b1010000 6
b1010000 _
b1010000 z
b1010000 8"
b1010000 B"
0L
b10000000 /
b10000000 a
b10000000 j
b10000000 l
b10000000 w
0n
b1 y
b1000 :
b1000 2"
b1000 >"
b0 5
b0 6"
b0 z"
b100 R
b100 h
b100 q"
b1 S
b1 p"
b1 F
b1 *"
b1 t"
b0 T
b0 ^
b0 o"
08
b0 ;
b0 1"
b0 y"
0[
#1500000
b11111110000000010000000000000000 B
b11111110000000010000000000000000 %"
b11111110000000010000000000000000 /"
b11111110000000010000000000000000 '"
b10000 @
b10000 7"
b10000 ["
b10000 ]"
b10 -"
b1100 :
b1100 2"
b1100 >"
b1010000 '
b1010000 J"
b1010000 O"
b1000000 M
b1000000 o
b1000000 {
b100100000101000000000000 ("
b100000000100000000000000 $"
0&
b10101010101000000010000 Z"
b1000000 6
b1000000 _
b1000000 z
b1000000 8"
b1000000 B"
b1000000 /
b1000000 a
b1000000 j
b1000000 l
b1000000 w
b1000 #
b1000 ,"
b1000 0"
b1000 ?"
b1000 @"
b1010000 $
b1010000 A"
b10000000 Q
b10000000 `
b10000000 m
b10000000 x
b10000000 }
0K
1}"
b11100101100100000101000000000000 D
b11100101100100000101000000000000 w"
b11100101100000000100000000000000 H
b11100101100000000100000000000000 g
b11100101100000000100000000000000 v"
b11100000100101010101000000000100 >
b11100000100101010101000000000100 x"
b11100010010101010101000000010000 *
b11100010010101010101000000010000 {"
b10 5"
b10 Y
b1000000 X
b1000000 3"
b0 W
b0 e
b0 V
b0 d
b11101000000000000000000000011010 ?
b11101000000000000000000000011010 ."
b11101000000000000000000000011010 ^"
1[
#1600000
0[
#1700000
b11010 O
b11010 q
b11010 N
b11010 p
b11010 u
b100 @
b100 7"
b100 ["
b100 ]"
b11111110010000010100000000000000 B
b11111110010000010100000000000000 %"
b11111110010000010100000000000000 /"
b11111110010000010100000000000000 '"
b11010 A
b11010 s
b11010 )"
b11010 +"
b1010 2
b1010 ;"
b1010 F"
b10000000 6
b10000000 _
b10000000 z
b10000000 8"
b10000000 B"
b100101010101000000000100 Z"
b100 :"
b100100000101000000000000 $"
1&
b11010 ("
b1010 9"
b11 -"
b10000 :
b10000 2"
b10000 >"
b1000000 '
b1000000 J"
b1000000 O"
b0 5"
b0 Y
b10000000 X
b10000000 3"
b11100000100101010101000000000100 *
b11100000100101010101000000000100 {"
b11100101100000000100000000000000 >
b11100101100000000100000000000000 x"
b11100101100100000101000000000000 H
b11100101100100000101000000000000 g
b11100101100100000101000000000000 v"
b11101000000000000000000000011010 D
b11101000000000000000000000011010 w"
0}"
b1000000 Q
b1000000 `
b1000000 m
b1000000 x
b1000000 }
b1100 #
b1100 ,"
b1100 0"
b1100 ?"
b1100 @"
b1000000 $
b1000000 A"
b11100011101100000101000001001111 ?
b11100011101100000101000001001111 ."
b11100011101100000101000001001111 ^"
1[
#1800000
b1000000 O
b1000000 q
b0 M
b0 o
b0 {
b1000000 N
b1000000 p
b1000000 u
b1000000 3
b1000000 t
b1000000 |
b1000000 !"
b1000000 D"
b100 2
b100 ;"
b100 F"
b0 y
0r
b1101000 A
b1101000 s
b1101000 )"
b1101000 +"
11
1I
b0 S
b0 p"
b10 F
b10 *"
b10 t"
0[
#1900000
b10000000 O
b10000000 q
b10000000 N
b10000000 p
b10000000 u
b11111110110000010100000100111100 A
b11111110110000010100000100111100 s
b11111110110000010100000100111100 )"
b11111110110000010100000100111100 +"
b1101000 B
b1101000 %"
b1101000 /"
b1101000 '"
b10000000 3
b10000000 t
b10000000 |
b10000000 !"
b10000000 D"
b101 2
b101 ;"
b101 F"
b0 @
b0 7"
b0 ["
b0 ]"
b100 -"
b10100 :
b10100 2"
b10100 >"
b10000000 '
b10000000 J"
b10000000 O"
b101100000101000001001111 ("
b1111 9"
b11010 $"
0&
b101 :"
b100000000100000000000000 Z"
b100 G"
b1000000 6
b1000000 _
b1000000 z
b1000000 8"
b1000000 B"
b10000 #
b10000 ,"
b10000 0"
b10000 ?"
b10000 @"
b10000000 $
b10000000 A"
1}"
b11100011101100000101000001001111 D
b11100011101100000101000001001111 w"
b11101000000000000000000000011010 H
b11101000000000000000000000011010 g
b11101000000000000000000000011010 v"
b11100101100100000101000000000000 >
b11100101100100000101000000000000 x"
b11100101100000000100000000000000 *
b11100101100000000100000000000000 {"
b1000000 X
b1000000 3"
b1000000 W
b1000000 e
b11100011101100000100000001000000 ?
b11100011101100000100000001000000 ."
b11100011101100000100000001000000 ^"
1[
#2000000
b1001111 O
b1001111 q
b1001111 N
b1001111 p
b1001111 u
b1111000 :
b1111000 2"
b1111000 >"
b1 y
1r
b1001111 A
b1001111 s
b1001111 )"
b1001111 +"
b0 /
b0 a
b0 j
b0 l
b0 w
b10000 3
b10000 t
b10000 |
b10000 !"
b10000 D"
b1111 2
b1111 ;"
b1111 F"
1|"
b1 ;
b1 1"
b1 y"
b1 S
b1 p"
b0 F
b0 *"
b0 t"
b0 R
b0 h
b0 q"
01
0I
00
0[
#2100000
b0 O
b0 q
b0 N
b0 p
b0 u
1k"
0n"
b0 B
b0 %"
b0 /"
b0 '"
b0 A
b0 s
b0 )"
b0 +"
b0 2
b0 ;"
b0 F"
b100100000101000000000000 Z"
b101 G"
b0 :"
b0 _"
b0 $"
b1001111 i
b0 ("
b0 9"
b11110 -"
b1111000 :
b1111000 2"
b1111000 >"
b1001111 W
b1001111 e
b11100101100100000101000000000000 *
b11100101100100000101000000000000 {"
b11101000000000000000000000011010 >
b11101000000000000000000000011010 x"
b0 H
b0 g
b0 v"
b0 D
b0 w"
1r"
0}"
b0 Q
b0 `
b0 m
b0 x
b0 }
b0 3
b0 t
b0 |
b0 !"
b0 D"
b1111000 #
b1111000 ,"
b1111000 0"
b1111000 ?"
b1111000 @"
b11100010100101010101000000000001 ?
b11100010100101010101000000000001 ."
b11100010100101010101000000000001 ^"
1[
#2200000
bx 6
bx _
bx z
bx 8"
bx B"
b0 y
0r
b1111100 :
b1111100 2"
b1111100 >"
b1 5
b1 6"
b1 z"
10
b0 S
b0 p"
0|"
b0 ;
b0 1"
b0 y"
0[
#2300000
b11010 @
b11010 7"
b11010 ["
b11010 ]"
b11111 -"
b10000000 :
b10000000 2"
b10000000 >"
bx '
b0xxxxxxxx J"
b0xxxxxxxx O"
b11010 Z"
b0 G"
b0 6
b0 _
b0 z
b0 8"
b0 B"
b0 i
b1111100 #
b1111100 ,"
b1111100 0"
b1111100 ?"
b1111100 @"
bx $
bx A"
b0 J
b0 ~
b0 4"
b0 ""
1}"
0r"
b0 >
b0 x"
b11101000000000000000000000011010 *
b11101000000000000000000000011010 {"
b0 X
b0 3"
b0 W
b0 e
b11100101100011011010000000000000 ?
b11100101100011011010000000000000 ."
b11100101100011011010000000000000 ^"
1[
#2400000
b0 5
b0 6"
b0 z"
00
0[
#2500000
b0 @
b0 7"
b0 ["
b0 ]"
b11100 U
b11100 c
b0 Z"
b100011011010000000000000 ("
b11100 4
b11100 b
b11100 C"
b1101 E"
b100000 -"
b10000100 :
b10000100 2"
b10000100 >"
b0 *
b0 {"
b11100101100011011010000000000000 D
b11100101100011011010000000000000 w"
0}"
b10000000 #
b10000000 ,"
b10000000 0"
b10000000 ?"
b10000000 @"
b11100010010111011101000000000100 ?
b11100010010111011101000000000100 ."
b11100010010111011101000000000100 ^"
1[
#2600000
b1 y
1r
b1 S
b1 p"
b1 F
b1 *"
b1 t"
0[
#2700000
b100 O
b100 q
b100 N
b100 p
b100 u
b100 A
b100 s
b100 )"
b100 +"
b1000000 3
b1000000 t
b1000000 |
b1000000 !"
b1000000 D"
b100 2
b100 ;"
b100 F"
0k"
1n"
b11111110001101101000000000000000 B
b11111110001101101000000000000000 %"
b11111110001101101000000000000000 /"
b11111110001101101000000000000000 '"
b100001 -"
b10001000 :
b10001000 2"
b10001000 >"
b10111011101000000000100 ("
b100 9"
b1110 _"
b100011011010000000000000 $"
b10000100 #
b10000100 ,"
b10000100 0"
b10000100 ?"
b10000100 @"
1}"
b11100010010111011101000000000100 D
b11100010010111011101000000000100 w"
b11100101100011011010000000000000 H
b11100101100011011010000000000000 g
b11100101100011011010000000000000 v"
b11100 V
b11100 d
b11100101100011010001000000000000 ?
b11100101100011010001000000000000 ."
b11100101100011010001000000000000 ^"
1[
#2800000
b11100 M
b11100 o
b11100 {
b11100 /
b11100 a
b11100 j
b11100 l
b11100 w
b0 F
b0 *"
b0 t"
b100 R
b100 h
b100 q"
0[
#2900000
b0 O
b0 q
b100000 M
b100000 o
b100000 {
b0 N
b0 p
b0 u
b1011101110100000000010000 B
b1011101110100000000010000 %"
b1011101110100000000010000 /"
b1011101110100000000010000 '"
b100000 /
b100000 a
b100000 j
b100000 l
b100000 w
b0 A
b0 s
b0 )"
b0 +"
b0 3
b0 t
b0 |
b0 !"
b0 D"
b0 2
b0 ;"
b0 F"
b1010 :"
b10111011101000000000100 $"
1&
b100 i
b100011010001000000000000 ("
b0 9"
b100010 -"
b10001100 :
b10001100 2"
b10001100 >"
b100 W
b100 e
b11100101100011011010000000000000 >
b11100101100011011010000000000000 x"
b11100010010111011101000000000100 H
b11100010010111011101000000000100 g
b11100010010111011101000000000100 v"
b11100101100011010001000000000000 D
b11100101100011010001000000000000 w"
0}"
b11100 Q
b11100 `
b11100 m
b11100 x
b11100 }
b10001000 #
b10001000 ,"
b10001000 0"
b10001000 ?"
b10001000 @"
b11100010010111011101000000000100 ?
b11100010010111011101000000000100 ."
b11100010010111011101000000000100 ^"
1[
#3000000
1k
b11000 M
b11000 o
b11000 {
b1010 2
b1010 ;"
b1010 F"
1L
b11000 /
b11000 a
b11000 j
b11000 l
b11000 w
b11000 U
b11000 c
11
1I
b10 R
b10 h
b10 q"
b1 F
b1 *"
b1 t"
b1 T
b1 ^
b1 o"
0[
